<svg width="31" height="19" viewBox="0 0 31 19" version="1.1" xmlns="http://www.w3.org/2000/svg" xmlns:xlink="http://www.w3.org/1999/xlink">
<title>cloud</title>
<desc>Created using Figma</desc>
<g id="Canvas" transform="translate(-7340 -2741)">
<g id="cloud">
<g id="Group">
<g id="Vector">
<use xlink:href="#path0_fill" transform="translate(7340 2741)" fill="#FFFFFF"/>
</g>
<g id="Vector">
<use xlink:href="#path1_fill" transform="translate(7358.64 2745.97)" fill="#FFFFFF"/>
</g>
</g>
</g>
</g>
<defs>
<path id="path0_fill" d="M 24.0182 19L 6.04041 19C 2.70984 19 0 16.2766 0 12.9281C 0 9.62679 2.63483 6.93163 5.90164 6.85716C 7.06527 2.80074 10.7409 6.47297e-08 14.9688 6.47297e-08C 18.4738 6.47297e-08 21.63 1.9099 23.2849 5.00665C 23.5475 4.97742 23.7856 4.96328 24.0172 4.96328C 27.8673 4.96328 30.9991 8.11094 30.9991 11.9798C 31.0009 15.8514 27.8682 19 24.0182 19ZM 6.04041 7.79891C 3.22649 7.79891 0.937661 10.1 0.937661 12.9281C 0.937661 15.7562 3.22649 18.0564 6.04041 18.0564L 24.0182 18.0564C 27.3516 18.0564 30.0623 15.3301 30.0623 11.9798C 30.0623 8.63036 27.3506 5.90598 24.0182 5.90598C 23.7388 5.90598 23.4434 5.93049 23.089 5.98422C 22.8883 6.01439 22.6895 5.90975 22.5995 5.72687C 21.1517 2.77718 18.2272 0.943637 14.9688 0.943637C 11.0456 0.943637 7.65131 3.61995 6.71365 7.452C 6.66114 7.66693 6.45579 7.80739 6.2467 7.81022L 6.04041 7.79891Z"/>
<path id="path1_fill" d="M 5.37657 14.0348C 5.11777 14.0348 4.90774 13.8237 4.90774 13.5635C 4.90774 13.3033 5.11777 13.0921 5.37657 13.0921C 8.70995 13.0921 11.4207 10.3659 11.4207 7.01553C 11.4207 3.66614 8.70901 0.941751 5.37657 0.941751C 3.63064 0.941751 1.97004 1.70062 0.821411 3.02322C 0.651694 3.2193 0.355393 3.24004 0.16036 3.06847C -0.0346736 2.89784 -0.0543648 2.59995 0.115352 2.40387C 1.4412 0.875763 3.35872 2.51726e-07 5.37657 2.51726e-07C 9.2266 2.51726e-07 12.3584 3.14766 12.3584 7.01647C 12.3593 10.8862 9.2266 14.0348 5.37657 14.0348Z"/>
</defs>
</svg>
