<svg width="19" height="19" viewBox="0 0 19 19" version="1.1" xmlns="http://www.w3.org/2000/svg" xmlns:xlink="http://www.w3.org/1999/xlink">
<title>shop</title>
<desc>Created using Figma</desc>
<g id="Canvas" transform="translate(-7311 -2741)">
<g id="shop">
<g id="Group">
<g id="Group">
<g id="Vector">
<use xlink:href="#path0_fill" transform="translate(7311 2741)" fill="#FFFFFF"/>
</g>
</g>
</g>
</g>
</g>
<defs>
<path id="path0_fill" d="M 19 6.22513C 19 6.13176 18.9806 6.04283 18.9379 5.96279L 16.1116 0.271238C 16.03 0.106717 15.8747 -3.39243e-08 15.7078 -3.39243e-08L 3.28831 -3.39243e-08C 3.12137 -3.39243e-08 2.96608 0.10227 2.88455 0.271238L 0.0621169 5.96279C 0.0232938 6.04283 0 6.13176 0 6.22513C 0 7.50129 0.671639 8.59513 1.63057 9.0798L 1.63057 18.4664C 1.63057 18.7599 1.84021 19 2.09644 19L 4.67041 19C 4.6743 19 4.67818 19 4.68206 19L 8.2926 19C 8.29649 19 8.30037 19 8.30425 19L 16.8997 19C 17.1559 19 17.3655 18.7599 17.3655 18.4664L 17.3655 9.1465C 17.3655 9.12427 17.3656 9.10648 17.3617 9.0887C 18.3245 8.60403 19 7.50573 19 6.22513ZM 3.56007 1.07161L 15.436 1.07161L 17.6451 5.52258L 1.35492 5.52258L 3.56007 1.07161ZM 13.5221 6.5853C 13.3745 7.54575 12.6408 8.27498 11.7595 8.27498C 10.8782 8.27498 10.1445 7.54575 9.99693 6.5853L 13.5221 6.5853ZM 9.00695 6.5853C 8.85942 7.54575 8.12566 8.27498 7.24438 8.27498C 6.3631 8.27498 5.62934 7.54575 5.47793 6.5853L 9.00695 6.5853ZM 0.962812 6.5853L 4.49183 6.5853C 4.3443 7.54575 3.60666 8.27498 2.72538 8.27498C 1.84409 8.27943 1.11034 7.54575 0.962812 6.5853ZM 16.2746 8.27943C 15.3933 8.27943 14.6596 7.5502 14.5121 6.58975L 18.0411 6.58975C 17.8897 7.54575 17.1559 8.27943 16.2746 8.27943Z"/>
</defs>
</svg>
